2020-11-05 22:50:18 [DEBUG] com.ocpsoft.pretty.faces.config.reload.PrettyConfigReloader - No development mode detected. Configuration reloading gets disabled.
2020-11-05 22:50:25 [WARN ] tn.esprit.spring.controller.ControllerEmployeImpl - Login Failed: Please check your username/password and try again.
2020-11-05 22:50:25 [DEBUG] com.ocpsoft.pretty.faces2.application.PrettyNavigationHandler - Navigation requested: fromAction [#{employeController.doLogin()}], outcome [null]
2020-11-05 22:50:25 [DEBUG] com.ocpsoft.pretty.faces2.application.PrettyNavigationHandler - Not a PrettyFaces navigation string - passing control to default nav-handler
2020-11-06 06:58:49 [DEBUG] com.ocpsoft.pretty.faces.config.reload.PrettyConfigReloader - Detector DefaultDevelopmentModeDetector returned: null
2020-11-06 06:58:49 [DEBUG] com.ocpsoft.pretty.faces.config.reload.PrettyConfigReloader - Detector JSF2DevelopmentModeDetector returned: false
2020-11-06 06:58:49 [DEBUG] com.ocpsoft.pretty.faces.config.reload.PrettyConfigReloader - No development mode detected. Configuration reloading gets disabled.
