2020-11-04 10:36:18 [DEBUG] com.ocpsoft.pretty.faces.config.reload.PrettyConfigReloader - Detector JSF2DevelopmentModeDetector returned: false
2020-11-04 10:36:18 [DEBUG] com.ocpsoft.pretty.faces.config.reload.PrettyConfigReloader - No development mode detected. Configuration reloading gets disabled.
2020-11-04 10:36:27 [INFO ] tn.esprit.spring.controller.ControllerEmployeImpl -  mar7be bik
2020-11-04 10:36:27 [DEBUG] com.ocpsoft.pretty.faces2.application.PrettyNavigationHandler - Navigation requested: fromAction [#{employeController.doLogin()}], outcome [/pages/admin/welcome.xhtml?faces-redirect=true]
2020-11-04 10:36:27 [DEBUG] com.ocpsoft.pretty.faces2.application.PrettyNavigationHandler - Not a PrettyFaces navigation string - passing control to default nav-handler
2020-11-05 19:19:36 [WARN ] tn.esprit.testLogs.TestLogs - aaaaaaaaaaaaaaaaaaaaaaaaaaaaaaaa
2020-11-05 19:25:01 [WARN ] tn.esprit.testLogs.TestLogs - aaaaaaaaaaaaaaaaaaaaaaaaaaaaaaaa
2020-11-05 19:26:26 [WARN ] tn.esprit.testLogs.TestLogs - aaaaaaaaaaaaaaaaaaaaaaaaaaaaaaaa
2020-11-05 19:26:52 [WARN ] tn.esprit.testLogs.TestLogs - aaaaaaaaaaaaaaaaaaaaaaaaaaaaaaaa
2020-11-05 19:26:52 [INFO ] tn.esprit.testLogs.TestLogs - aaaaaaaaaaaaaaaaaaaaaaaaaaaaaaaa
2020-11-05 19:27:16 [WARN ] tn.esprit.testLogs.TestLogs - info
2020-11-05 19:27:16 [INFO ] tn.esprit.testLogs.TestLogs - test
2020-11-05 19:27:29 [WARN ] tn.esprit.testLogs.TestLogs - info
2020-11-05 19:27:29 [INFO ] tn.esprit.testLogs.TestLogs - test
2020-11-05 20:56:42 [INFO ] tn.esprit.testJunit.Calcul - In calculerDiff(40, 10)
2020-11-05 20:56:42 [INFO ] tn.esprit.testJunit.Calcul - Out calculerDiff() : 30
2020-11-05 20:56:42 [INFO ] tn.esprit.testJunit.Calcul - In calculerSom(10, 15)
2020-11-05 20:56:42 [INFO ] tn.esprit.testJunit.Calcul - Out calculerSom() : 25
2020-11-05 20:56:59 [INFO ] tn.esprit.testJunit.Calcul - In calculerDiff(40, 10)
2020-11-05 20:56:59 [INFO ] tn.esprit.testJunit.Calcul - Out calculerDiff() : 30
2020-11-05 20:56:59 [INFO ] tn.esprit.testJunit.Calcul - In calculerSom(10, 15)
2020-11-05 20:56:59 [INFO ] tn.esprit.testJunit.Calcul - Out calculerSom() : 25
2020-11-05 20:57:53 [INFO ] tn.esprit.testJunit.Calcul - In calculerDiff(40, 10)
2020-11-05 20:57:53 [INFO ] tn.esprit.testJunit.Calcul - Out calculerDiff() : 30
2020-11-05 20:57:53 [INFO ] tn.esprit.testJunit.Calcul - In calculerSom(10, 15)
2020-11-05 20:57:53 [INFO ] tn.esprit.testJunit.Calcul - Out calculerSom() : 25
2020-11-05 22:47:04 [WARN ] tn.esprit.testLogs.TestLogs - info
2020-11-05 22:47:04 [INFO ] tn.esprit.testLogs.TestLogs - test
2020-11-05 22:50:18 [DEBUG] com.ocpsoft.pretty.faces.config.reload.PrettyConfigReloader - Detector DefaultDevelopmentModeDetector returned: null
2020-11-05 22:50:18 [DEBUG] com.ocpsoft.pretty.faces.config.reload.PrettyConfigReloader - Detector JSF2DevelopmentModeDetector returned: false
